{
  "variables": {
    "aws_region": "{{env `AWS_REGION`}}",
    "ansible_roles_path": "{{env `KEANU_ANSIBLE_PATH`}}/roles",
    "ansible_playbooks_path": "{{env `KEANU_ANSIBLE_PATH`}}/playbooks",
    "ansible_extra_args": "{{env `ANSIBLE_EXTRA_ARGS`}}",
    "namespace": "{{env `NAMESPACE`}}",
    "environment": "{{env `ENVIRONMENT`}}",
    "project": "{{env `PROJECT`}}",
    "packer_output": "{{env `PACKER_OUTPUT`}}",
    "debian_codename": "bullseye",
    "name_prefix": "{{env `AMI_KIND`}}",
    "ami_filter_owner": "136693071363",
    "ami_filter_name": "debian-11-amd64-*",
    "account_ids": "{{env `AMI_SHARED_ACCOUNT_IDS`}}"
  },
  "builders": [
    {
      "name": "debian-base",
      "type": "amazon-ebs",
      "region": "{{user `aws_region`}}",
      "source_ami_filter": {
        "filters": {
          "virtualization-type": "hvm",
          "name": "{{user `ami_filter_name`}}*",
          "root-device-type": "ebs"
        },
        "owners": ["{{user `ami_filter_owner`}}"],
        "most_recent": true
      },
      "vpc_filter": {
        "filters": {
          "tag:Namespace": "{{user `namespace`}}",
          "tag:Environment": "{{user `environment`}}",
          "tag:Project": "{{user `project`}}",
          "isDefault": "false"
        }
      },
      "subnet_filter": {
        "filters": {
          "tag:Namespace": "{{user `namespace`}}",
          "tag:Environment": "{{user `environment`}}",
          "tag:Project": "{{user `project`}}",
          "tag:Attributes": "public1"
        }
      },
      "instance_type": "t3.micro",
      "temporary_iam_instance_profile_policy_document": {
        "Version": "2012-10-17",
        "Statement": [
          {
            "Effect": "Allow",
            "Action": "ec2:DescribeTags",
            "Resource": "*"
          }
        ]
      },
      "ssh_username": "admin",
      "ami_name": "{{user `name_prefix`}}-debian-base-{{user `namespace`}}-{{user `environment`}}-{{user `debian_codename`}}-{{timestamp}}",
      "ami_groups": ["all"],
      "ami_users": "{{user `account_ids` }}",
      "run_tags": {
        "Namespace": "{{user `namespace`}}",
        "Environment": "{{user `environment`}}",
        "Project": "{{user `project`}}",
        "Name": "Packer builder for debian-base"
      },
      "run_volume_tags": {
        "Namespace": "{{user `namespace`}}",
        "Environment": "{{user `environment`}}",
        "Project": "{{user `project`}}"
      },
      "tags": {
        "Name": "{{user `name_prefix`}}-debian-base-{{user `namespace`}}-{{user `environment`}}-{{user `debian_codename`}}",
        "Namespace": "{{user `namespace`}}",
        "Environment": "{{user `environment`}}",
        "Project": "{{user `project`}}",
        "Date": "{{isotime | clean_resource_name }}",
        "Application": "debian-base",
        "Version": "{{user `debian_codename`}}",
        "Kind": "{{user `name_prefix`}}",
        "OS": "debian/{{user `debian_codename`}}"
      }
    }
  ],
  "provisioners": [
    {
      "type": "ansible",
      "only": ["debian-base"],
      "groups": ["packer"],
      "playbook_file": "{{user `ansible_playbooks_path`}}/ami-debian-base.yml",
      "ansible_env_vars": [
        "ANSIBLE_PYTHON_INTERPRETER=/usr/bin/python3",
        "ANSIBLE_ROLES_PATH={{user `ansible_roles_path` }}",
        "ANSIBLE_REMOTE_TMP=/tmp"
      ],
      "extra_arguments": [
        "{{user `ansible_extra_args`}}",
        "--extra-vars", "confd_ssm_region={{user `aws_region`}} debian-base_checksum={{user `debian-base_checksum`}} debian-base_checksum={{user `debian-base_checksum`}}"
      ]
    }
  ],
  "post-processors": [
    {
      "type": "manifest",
      "output": "{{user `packer_output`}}/debian-base.json",
      "strip_path": true
    }
  ]
}
